<?xml version="1.0" encoding="utf-8"?>
<!-- Generator: Adobe Illustrator 22.0.1, SVG Export Plug-In . SVG Version: 6.00 Build 0)  -->
<svg version="1.1" id="Layer_1" xmlns="http://www.w3.org/2000/svg" xmlns:xlink="http://www.w3.org/1999/xlink" x="0px" y="0px"
	 viewBox="0 0 181 181.8" style="enable-background:new 0 0 181 181.8;" xml:space="preserve">
<g>
	<rect y="110" width="70" height="70"/>
	<rect width="70" height="70"/>
	<rect x="110" y="110" width="70" height="70"/>
	<rect x="110" width="70" height="70"/>
</g>
</svg>
