<?xml version="1.0" encoding="iso-8859-1"?>
<!-- Generator: Adobe Illustrator 19.0.0, SVG Export Plug-In . SVG Version: 6.00 Build 0)  -->
<svg version="1.1" id="Capa_1" xmlns="http://www.w3.org/2000/svg" xmlns:xlink="http://www.w3.org/1999/xlink" x="0px" y="0px"
	 viewBox="0 0 480 480" style="enable-background:new 0 0 480 480;" xml:space="preserve">
<g>
	<g>
		<path d="M472,360h-23.633V88c0-17.648-14.352-32-32-32H64c-17.648,0-32,14.352-32,32v272H8c-4.422,0-8,3.578-8,8v24
			c0,17.648,14.352,32,32,32h416c17.648,0,32-14.352,32-32v-24C480,363.578,476.422,360,472,360z M48,88c0-8.82,7.18-16,16-16
			h352.367c8.82,0,16,7.18,16,16v272H48V88z M464,392c0,8.82-7.18,16-16,16H32c-8.82,0-16-7.18-16-16v-16h352v16h16v-16h16v16h16
			v-16h48V392z"/>
	</g>
</g>
<g>
	<g>
		<path d="M408,104H72c-4.422,0-8,3.578-8,8v224c0,4.422,3.578,8,8,8h336c4.422,0,8-3.578,8-8V112C416,107.578,412.422,104,408,104z
			 M400,328H80V120h320V328z"/>
	</g>
</g>
<g>
	<g>
		<rect x="232" y="80" width="16" height="16"/>
	</g>
</g>
<g>
	<g>
		<path fill="#ff007e" d="M365.656,266.344L347.313,248l10.344-10.344c2.289-2.289,2.977-5.727,1.734-8.719C358.156,225.945,355.234,224,352,224
			h-56c-4.422,0-8,3.578-8,8v56c0,3.234,1.945,6.156,4.938,7.391c2.992,1.25,6.43,0.555,8.719-1.734L312,283.313l18.344,18.344
			c1.563,1.563,3.609,2.344,5.656,2.344s4.094-0.781,5.656-2.344l24-24C368.781,274.531,368.781,269.469,365.656,266.344z
			 M336,284.688l-18.344-18.344C316.094,264.781,314.047,264,312,264s-4.094,0.781-5.656,2.344L304,268.688V240h28.688l-2.344,2.344
			c-3.125,3.125-3.125,8.188,0,11.313L348.688,272L336,284.688z"/>
	</g>
</g>
<g>
	<g>
		<rect fill="#ff007e" x="96" y="136" width="128" height="16"/>
	</g>
</g>
<g>
	<g>
		<path d="M376,168H104c-4.422,0-8,3.578-8,8v128c0,4.422,3.578,8,8,8h176v-16H112V184h256v32h16v-40
			C384,171.578,380.422,168,376,168z"/>
	</g>
</g>
<g>
	<g>
		<path fill="#ff007e" d="M197,233.75l-40-32c-2.406-1.922-5.703-2.297-8.469-0.961S144,204.922,144,208v64c0,3.078,1.766,5.875,4.531,7.211
			C149.641,279.742,150.82,280,152,280c1.781,0,3.555-0.594,5-1.75l40-32c1.898-1.523,3-3.82,3-6.25S198.898,235.273,197,233.75z
			 M160,255.352v-30.703L179.195,240L160,255.352z"/>
	</g>
</g>
<g>
</g>
<g>
</g>
<g>
</g>
<g>
</g>
<g>
</g>
<g>
</g>
<g>
</g>
<g>
</g>
<g>
</g>
<g>
</g>
<g>
</g>
<g>
</g>
<g>
</g>
<g>
</g>
<g>
</g>
</svg>
