<?xml version="1.0" encoding="utf-8"?>
<!-- Generator: Adobe Illustrator 21.1.0, SVG Export Plug-In . SVG Version: 6.00 Build 0)  -->
<svg version="1.1" id="Capa_1" xmlns="http://www.w3.org/2000/svg" xmlns:xlink="http://www.w3.org/1999/xlink" x="0px" y="0px"
	 viewBox="0 0 96 96" style="enable-background:new 0 0 96 96;" xml:space="preserve">
<style type="text/css">
	.st0{fill:#FF9800;}
</style>
<path class="st0" d="M38.5,33c0-5.2,4.3-9.5,9.5-9.5s9.5,4.3,9.5,9.5s-4.3,9.5-9.5,9.5S38.5,38.3,38.5,33z M96,15.7v64.5
	C96,89,89,96,80.3,96H15.7C7,96,0,89,0,80.3v-63C0,7.7,7.7,0,17.2,0h63C89,0,96,7,96,15.7z M30.3,33c0,9.7,7.9,17.6,17.7,17.7
	c9.7,0,17.7-7.9,17.7-17.7c0-9.7-7.9-17.7-17.7-17.7S30.3,23.3,30.3,33z M68.4,53.3c0-1.9-1-3.7-2.8-4.5c-1.8-0.9-3.9-0.7-5.4,0.5
	c-7.3,5.3-17.1,5.3-24.3,0c-1.6-1.2-3.7-1.4-5.4-0.5c-1.7,0.8-2.8,2.6-2.8,4.5c0,2.3,1.2,4.4,3.1,5.7c2.5,1.6,5.1,2.9,8,3.8
	c0.5,0.1,1,0.3,1.5,0.4l-8.2,8c-2.2,2.1-2.2,5.5-0.1,7.7c2.1,2.2,5.5,2.2,7.7,0.1c0,0,0.1-0.1,0.1-0.1l8.4-8.7l8.4,8.7
	c2.1,2.2,5.5,2.2,7.7,0.1s2.2-5.5,0.1-7.7c0,0-0.1-0.1-0.1-0.1l-8.2-8c0.5-0.1,1-0.3,1.5-0.4c2.8-0.9,5.5-2.2,7.9-3.8
	C67.2,57.8,68.4,55.6,68.4,53.3z"/>
</svg>
